{
    "lojas": [
        {
            "cidade": "S\u00e3o Jos\u00e9 dos Campos",
            "cidade_id": "5265",
            "endereco": "Avenida Deputado Benedito Matarazzo, 9403",
            "estado": "S\u00e3o Paulo",
            "estado_id": "26",
            "estoque": "0",
            "latitude": "",
            "loja_id": "2",
            "longitude": "",
            "nome": "Center Vale Shopping"
        },
        {
            "cidade": "S\u00e3o Paulo",
            "cidade_id": "5270",
            "endereco": "Rua Capit\u00e3o Pacheco e Chaves,313",
            "estado": "S\u00e3o Paulo",
            "estado_id": "26",
            "estoque": "0",
            "latitude": "",
            "loja_id": "3",
            "longitude": "",
            "nome": "Mooca Plaza Shopping "
        },
        {
            "cidade": "Campinas",
            "cidade_id": "4814",
            "endereco": "Avenida Guilherme Campos, 500",
            "estado": "S\u00e3o Paulo",
            "estado_id": "26",
            "estoque": "0",
            "latitude": "",
            "loja_id": "4",
            "longitude": "",
            "nome": "Parque Dom Pedro Shopping"
        },
        {
            "cidade": "Ribeir\u00e3o Preto",
            "cidade_id": "5195",
            "endereco": "Avenida Coronel Fernando Ferreira Leite, 1540",
            "estado": "S\u00e3o Paulo",
            "estado_id": "26",
            "estoque": "0",
            "latitude": "",
            "loja_id": "5",
            "longitude": "",
            "nome": "Ribeir\u00e3o Shopping"
        },
        {
            "cidade": "Barueri",
            "cidade_id": "4770",
            "endereco": "Avenida Piracema, 669",
            "estado": "S\u00e3o Paulo",
            "estado_id": "26",
            "estoque": "0",
            "latitude": "",
            "loja_id": "6",
            "longitude": "",
            "nome": "Shopping Tambor\u00e9 "
        },
        {
            "cidade": "Belo Horizonte",
            "cidade_id": "1630",
            "endereco": "ROD BR-356, 3049",
            "estado": "Minas Gerais",
            "estado_id": "11",
            "estoque": "0",
            "latitude": "",
            "loja_id": "7",
            "longitude": "",
            "nome": "BH Shopping"
        },
        {
            "cidade": "Cotia",
            "cidade_id": "4851",
            "endereco": "Rodovia Raposo Tavares, Km 23,5",
            "estado": "S\u00e3o Paulo",
            "estado_id": "26",
            "estoque": "0",
            "latitude": "",
            "loja_id": "8",
            "longitude": "",
            "nome": "Shopping Granja Vianna"
        },
        {
            "cidade": "Belo Horizonte",
            "cidade_id": "1630",
            "endereco": "Avenida Oleg\u00e1rio Maciel, 1600",
            "estado": "Minas Gerais",
            "estado_id": "11",
            "estoque": "0",
            "latitude": "",
            "loja_id": "9",
            "longitude": "",
            "nome": "DiamondMall"
        },
        {
            "cidade": "S\u00e3o Paulo",
            "cidade_id": "5270",
            "endereco": "Avenida Regente Feij\u00f3, 1739",
            "estado": "S\u00e3o Paulo",
            "estado_id": "26",
            "estoque": "0",
            "latitude": "",
            "loja_id": "10",
            "longitude": "",
            "nome": "Shopping An\u00e1lia Franco"
        },
        {
            "cidade": "Curitiba",
            "cidade_id": "2878",
            "endereco": "Avenida Batel, 1868",
            "estado": "Paran\u00e1",
            "estado_id": "18",
            "estoque": "0",
            "latitude": "",
            "loja_id": "11",
            "longitude": "",
            "nome": "Shopping P\u00e1tio Batel"
        },
        {
            "cidade": "S\u00e3o Paulo",
            "cidade_id": "5270",
            "endereco": "Avenida das Na\u00e7\u00f5es Unidas, 4777",
            "estado": "S\u00e3o Paulo",
            "estado_id": "26",
            "estoque": "0",
            "latitude": "",
            "loja_id": "12",
            "longitude": "",
            "nome": "Shopping Villa Lobos"
        },
        {
            "cidade": "Curitiba",
            "cidade_id": "2878",
            "endereco": "Rua Brigadeiro Franco, 2300",
            "estado": "Paran\u00e1",
            "estado_id": "18",
            "estoque": "0",
            "latitude": "",
            "loja_id": "13",
            "longitude": "",
            "nome": " Shopping Curitiba"
        },
        {
            "cidade": "Votorantim",
            "cidade_id": "5348",
            "endereco": "Avenida Gisele Constantino, 1800",
            "estado": "S\u00e3o Paulo",
            "estado_id": "26",
            "estoque": "0",
            "latitude": "",
            "loja_id": "14",
            "longitude": "",
            "nome": "Shopping Iguatemi Esplanada"
        },
        {
            "cidade": "Belo Horizonte",
            "cidade_id": "1630",
            "endereco": "Avenida dos Andradas, 3000",
            "estado": "Minas Gerais",
            "estado_id": "11",
            "estoque": "0",
            "latitude": "",
            "loja_id": "15",
            "longitude": "",
            "nome": "Boulevard Shopping BH"
        },
        {
            "cidade": "S\u00e3o Bernardo do Campo",
            "cidade_id": "5252",
            "endereco": "Avenida Keneddy, 700",
            "estado": "S\u00e3o Paulo",
            "estado_id": "26",
            "estoque": "0",
            "latitude": "",
            "loja_id": "16",
            "longitude": "",
            "nome": "Golden Square Shopping"
        },
        {
            "cidade": "Curitiba",
            "cidade_id": "2878",
            "endereco": "Rua Professor Pedro Viriato de Souza, 600",
            "estado": "Paran\u00e1",
            "estado_id": "18",
            "estoque": "0",
            "latitude": "",
            "loja_id": "17",
            "longitude": "",
            "nome": "Park Shopping Barigui"
        },
        {
            "cidade": "S\u00e3o Jos\u00e9 do Rio Preto",
            "cidade_id": "5264",
            "endereco": "Avenida Juscelino Kubitschek de Oliveira, 5000",
            "estado": "S\u00e3o Paulo",
            "estado_id": "26",
            "estoque": "0",
            "latitude": "",
            "loja_id": "18",
            "longitude": "",
            "nome": "Shopping  Iguatemi Rio Preto"
        },
        {
            "cidade": "Piracicaba",
            "cidade_id": "5141",
            "endereco": "Avenida Limeira, 722",
            "estado": "S\u00e3o Paulo",
            "estado_id": "26",
            "estoque": "0",
            "latitude": "",
            "loja_id": "19",
            "longitude": "",
            "nome": "Shopping Piracicaba"
        },
        {
            "cidade": "Curitiba",
            "cidade_id": "2878",
            "endereco": "Avenida Presidente Kennedy, 4121",
            "estado": "Paran\u00e1",
            "estado_id": "18",
            "estoque": "0",
            "latitude": "",
            "loja_id": "20",
            "longitude": "",
            "nome": "Shopping Palladium"
        },
        {
            "cidade": "Rio de Janeiro",
            "cidade_id": "3658",
            "endereco": "Praia de Botafogo, 400",
            "estado": "Rio de Janeiro",
            "estado_id": "19",
            "estoque": "0",
            "latitude": "",
            "loja_id": "21",
            "longitude": "",
            "nome": "Botafogo Praia Shopping"
        },
        {
            "cidade": "Rio de Janeiro",
            "cidade_id": "3658",
            "endereco": "Avenida das Am\u00e9ricas, 4666",
            "estado": "Rio de Janeiro",
            "estado_id": "19",
            "estoque": "0",
            "latitude": "",
            "loja_id": "22",
            "longitude": "",
            "nome": "Barra Shopping"
        },
        {
            "cidade": "Bras\u00edlia",
            "cidade_id": "882",
            "endereco": "SDN CNB, Conjunto A, S/N - Asa Norte",
            "estado": "Distrito Federal",
            "estado_id": "7",
            "estoque": "0",
            "latitude": "",
            "loja_id": "23",
            "longitude": "",
            "nome": "Shopping Conjunto Nacional"
        },
        {
            "cidade": "Santos",
            "cidade_id": "5250",
            "endereco": "Rua Alexandre Martins, 80",
            "estado": "S\u00e3o Paulo",
            "estado_id": "26",
            "estoque": "0",
            "latitude": "",
            "loja_id": "24",
            "longitude": "",
            "nome": "Praiamar Shopping"
        },
        {
            "cidade": "S\u00e3o Paulo",
            "cidade_id": "5270",
            "endereco": "Rua Frei Caneca, 569",
            "estado": "S\u00e3o Paulo",
            "estado_id": "26",
            "estoque": "0",
            "latitude": "",
            "loja_id": "25",
            "longitude": "",
            "nome": "Shopping Frei Caneca"
        },
        {
            "cidade": "Belo Horizonte",
            "cidade_id": "1630",
            "endereco": "Avenida do Contorno, 6061",
            "estado": "Minas Gerais",
            "estado_id": "11",
            "estoque": "0",
            "latitude": "",
            "loja_id": "26",
            "longitude": "",
            "nome": "Shopping P\u00e1tio Savassi"
        },
        {
            "cidade": "Rio de Janeiro",
            "cidade_id": "3658",
            "endereco": "Avenida Maracan\u00e3, 987",
            "estado": "Rio de Janeiro",
            "estado_id": "19",
            "estoque": "0",
            "latitude": "",
            "loja_id": "27",
            "longitude": "",
            "nome": "Shopping Tijuca"
        },
        {
            "cidade": "Niter\u00f3i",
            "cidade_id": "3638",
            "endereco": "Rua XV de Novembro, 8",
            "estado": "Rio de Janeiro",
            "estado_id": "19",
            "estoque": "0",
            "latitude": "",
            "loja_id": "28",
            "longitude": "",
            "nome": "Plaza Shopping Niter\u00f3i"
        },
        {
            "cidade": "S\u00e3o Paulo",
            "cidade_id": "5270",
            "endereco": "Avenida Paulista, 1230",
            "estado": "S\u00e3o Paulo",
            "estado_id": "26",
            "estoque": "0",
            "latitude": "",
            "loja_id": "29",
            "longitude": "",
            "nome": "Shopping Cidade S\u00e3o Paulo"
        },
        {
            "cidade": "Taguatinga",
            "cidade_id": "5565",
            "endereco": "QS 01 Rua 210, lote 40 - 1055/1056A",
            "estado": "Distrito Federal",
            "estado_id": "7",
            "estoque": "0",
            "latitude": "",
            "loja_id": "30",
            "longitude": "",
            "nome": "Taguatinga Shopping"
        },
        {
            "cidade": "Rio de Janeiro",
            "cidade_id": "3658",
            "endereco": "Avenida Dom H\u00e9lder Camara, 5474",
            "estado": "Rio de Janeiro",
            "estado_id": "19",
            "estoque": "0",
            "latitude": "",
            "loja_id": "31",
            "longitude": "",
            "nome": "Norte Shopping"
        },
        {
            "cidade": "Santo Andr\u00e9",
            "cidade_id": "5242",
            "endereco": "Avenida Pereira Barreto, 42",
            "estado": "S\u00e3o Paulo",
            "estado_id": "26",
            "estoque": "0",
            "latitude": "",
            "loja_id": "32",
            "longitude": "",
            "nome": "Shopping ABC"
        },
        {
            "cidade": "Curitiba",
            "cidade_id": "2878",
            "endereco": "Avenida Sete de Setembro, 2775",
            "estado": "Paran\u00e1",
            "estado_id": "18",
            "estoque": "0",
            "latitude": "",
            "loja_id": "33",
            "longitude": "",
            "nome": "Shopping Esta\u00e7\u00e3o"
        },
        {
            "cidade": "Rio de Janeiro",
            "cidade_id": "3658",
            "endereco": " Avenida das Am\u00e9ricas, 7777",
            "estado": "Rio de Janeiro",
            "estado_id": "19",
            "estoque": "0",
            "latitude": "",
            "loja_id": "34",
            "longitude": "",
            "nome": "Shopping Rio Design"
        },
        {
            "cidade": "S\u00e3o Paulo",
            "cidade_id": "5270",
            "endereco": "Avenida Roque Petroni J\u00fanior, 1089",
            "estado": "S\u00e3o Paulo",
            "estado_id": "26",
            "estoque": "0",
            "latitude": "",
            "loja_id": "35",
            "longitude": "",
            "nome": "Shopping Morumbi"
        },
        {
            "cidade": "S\u00e3o Paulo",
            "cidade_id": "5270",
            "endereco": "Rua Olimp\u00edadas, 360",
            "estado": "S\u00e3o Paulo",
            "estado_id": "26",
            "estoque": "0",
            "latitude": "",
            "loja_id": "36",
            "longitude": "",
            "nome": "Shopping Vila Ol\u00edmpia"
        },
        {
            "cidade": "Rio de Janeiro",
            "cidade_id": "3658",
            "endereco": "Avenida Pastor Martin Luther King Jr., 126",
            "estado": "Rio de Janeiro",
            "estado_id": "19",
            "estoque": "0",
            "latitude": "",
            "loja_id": "37",
            "longitude": "",
            "nome": "Shopping Nova Am\u00e9rica"
        },
        {
            "cidade": "Rio de Janeiro",
            "cidade_id": "3658",
            "endereco": "Avenida Maestro Paulo e Silva, 400",
            "estado": "Rio de Janeiro",
            "estado_id": "19",
            "estoque": "0",
            "latitude": "",
            "loja_id": "38",
            "longitude": "",
            "nome": "Shopping Ilha Plaza"
        },
        {
            "cidade": "S\u00e3o Paulo",
            "cidade_id": "5270",
            "endereco": "Rua Conselheiro Moreira de Barros, 2780",
            "estado": "S\u00e3o Paulo",
            "estado_id": "26",
            "estoque": "0",
            "latitude": "",
            "loja_id": "39",
            "longitude": "",
            "nome": "Santana Parque Shopping"
        },
        {
            "cidade": "Balne\u00e1rio Cambori\u00fa",
            "cidade_id": "4440",
            "endereco": "Avenida Santa Catarina, 1",
            "estado": "Santa Catarina",
            "estado_id": "24",
            "estoque": "0",
            "latitude": "",
            "loja_id": "40",
            "longitude": "",
            "nome": "Balne\u00e1rio Shopping"
        },
        {
            "cidade": "S\u00e3o Paulo",
            "cidade_id": "5270",
            "endereco": "Pra\u00e7a Leonor Kauppa, 100",
            "estado": "S\u00e3o Paulo",
            "estado_id": "26",
            "estoque": "0",
            "latitude": "",
            "loja_id": "41",
            "longitude": "",
            "nome": "Shopping Plaza Sul"
        },
        {
            "cidade": "Recife",
            "cidade_id": "3315",
            "endereco": "Rua Padre Carapuceiro, 777",
            "estado": "Pernambuco",
            "estado_id": "16",
            "estoque": "0",
            "latitude": "",
            "loja_id": "42",
            "longitude": "",
            "nome": "Shopping Recife"
        },
        {
            "cidade": "Recife",
            "cidade_id": "3315",
            "endereco": "Avenida Rep\u00fablica do L\u00edbano, 251",
            "estado": "Pernambuco",
            "estado_id": "16",
            "estoque": "0",
            "latitude": "",
            "loja_id": "43",
            "longitude": "",
            "nome": "Shopping Riomar Recife"
        },
        {
            "cidade": "Recife",
            "cidade_id": "3315",
            "endereco": "Rua Dr. Jo\u00e3o Santos Filho, 255",
            "estado": "Pernambuco",
            "estado_id": "16",
            "estoque": "0",
            "latitude": "",
            "loja_id": "44",
            "longitude": "",
            "nome": "Plaza Casa Forte"
        },
        {
            "cidade": "S\u00e3o Paulo",
            "cidade_id": "5270",
            "endereco": "Rua Treze de Maio, 1947",
            "estado": "S\u00e3o Paulo",
            "estado_id": "26",
            "estoque": "0",
            "latitude": "",
            "loja_id": "45",
            "longitude": "",
            "nome": "Shopping Patio Paulista"
        }
    ],
    "success": true
}
