{
  "type": "service_account",
  "project_id": "tbbsustentavel",
  "private_key_id": "0183f53ad3d25b43a78310b08a7c2fff44b1aa6c",
  "private_key": "-----BEGIN PRIVATE KEY-----\nMIIEvgIBADANBgkqhkiG9w0BAQEFAASCBKgwggSkAgEAAoIBAQCnh8+1/MRpLCxw\nHs1kleXt6zH5NEqS2UuUlL7mi2C2tm0c7tvTALu3QVPRZBn44dKAFtK0S0S5azy0\nuX0WEgL8YoX3hZLDcBMgIFP8MOAcFczTJ8muK2iFNBKvQq072SOkbAll4c9QwvOP\nC+EhTVmlwaqLaQz23Bb2L+zloPT0olJR6UkYD3qFt7HpLPq3oLyUWEW48qLX7k/N\nZuhZoxWIqFTJMg3Q1hxpOuiBnEVML0bAvKZJ6CBSGWTb6s7iBbr6yDDj3GgquWSj\nSk7NLeGY6DjAaptBzKiMYpXpQRn15Qg60TeZNsGYISmwnrZlKw0HDWqoAypR2lt3\noJMdvGOjAgMBAAECggEBAIiS9CcleC1RQKzqv4CXnwl1apkBIyZSFQZ8uKAT0fVC\nBPPIWdbLSzza+ezC0VWPK18WvBEVJ2KNZMDkUnASoPKFkzc1Ym8HR+Ax2qXGZn0e\n3IrrbcQaSSwGRpEwJy+aFi9tj7/J9YueUpY0FgVjHIk/t7vNGS+KPwHWEiclL2za\nMQmLZ7/7ZMAxahPtDymjKltWKBjuZzCINaayC4NLNEHOTdp0dk8e+fSWHnrJne3J\nUT2xQdpkI41kdLiZ3aYFvt5VWRInPSkk1yL72AGTbj3/iD7y7QeWTUG5ToErSPx0\nojmiasr1nklRM2IDC5l51iQhB4WFZ4h3mGRYPtb5+MkCgYEA3i4CjsqEAPW2coiZ\nytIfjDxrQbPC1lvUCv6hMfI/RXxOKwGZqnAW5W5SesojXV70MNMRq6zCWz8m1SRO\n22mxNQb3q7f8XWSQGSPRr1zpT819FqGPsEZ9JG+kSaZtg6fyrEUH3034kONxiCfb\nyybw6NVRW8aR0+HYdCCTy2/dBocCgYEAwQg1ZjzMLA+Eil0ppbCCFbu/GIrNbUzd\ngX0hROT23SEVK7nos3neKwSCiQPJktreRv6CBwfRXcd+j7ZQCWqBKr6ERkn9IVrf\neDkyqTJuK8F45L9jBKcMi3oQ/DSsVW61ZvcQEkl8u8+EP9oZ7mEKagvRZsoJQ6Ba\nmfORm0xoZQUCgYEAorkx+GDMg2Nyx7nSYaC5qF0L9SfyWEsTJyZM6ybQPlUHbyoR\n4KmNq2W8lN/9PMJxuFyuQX0bL/c1ur+H3d0wA3Vh6eursr8XZsI8LeKvoloO9odH\nlMRbnVcDDUoORXG5I4C/fkY9+egK27zNlqGjqfOqTbxGS9fKT2sYs9PvHnsCgYB4\nbl6igpv/gU735Ffvf8gpNxFqhm7UGni4KRFwoklCfTlwJnUARLBPtmiagzpn3RWA\nxZjqOf5tu+FCWERnG4Oq32I3WEINZVy27TimR0hlFDgQvzdP18kD3AxszZAXXRLg\nQpRMVHz1z+p6y+AR0Yll0Cm9L5/ICWt9UXEuquUW4QKBgF4Rk9I4raduc2Frff7Q\njm/om8x+aOIVpN+ICsC4NF0yKiNJPtbmxQBXf7HkuG1GL3ODt4Ng/NjRivnQrSn7\nSmRYcHGru+ofINKFaR++I7/F6/lbmpcX1LyqRYLLOmY2is+6SjfudWrzc1HNfyh3\nlYv0MMKFcQZzVASnkExp/P/w\n-----END PRIVATE KEY-----\n",
  "client_email": "tbbcalendar@tbbsustentavel.iam.gserviceaccount.com",
  "client_id": "110278609379417338400",
  "auth_uri": "https://accounts.google.com/o/oauth2/auth",
  "token_uri": "https://accounts.google.com/o/oauth2/token",
  "auth_provider_x509_cert_url": "https://www.googleapis.com/oauth2/v1/certs",
  "client_x509_cert_url": "https://www.googleapis.com/robot/v1/metadata/x509/tbbcalendar%40tbbsustentavel.iam.gserviceaccount.com"
}
